Conquistando errores con R
…
Para trabajar en RStudio Cloud: 

¿Dudas? ¿Problemas? Escribilos en el chat y te ayudamos!

---

## Errores en cadenas de código

```r
datos::pinguinos
```

```
## # A tibble: 344 × 8
##    especie isla      largo_pico_mm alto_pico_mm largo_aleta_mm masa_corporal_g sexo    anio
##    <fct>   <fct>             <dbl>        <dbl>          <int>           <int> <fct>  <int>
##  1 Adelia  Torgersen          39.1         18.7            181            3750 macho   2007
##  2 Adelia  Torgersen          39.5         17.4            186            3800 hembra  2007
##  3 Adelia  Torgersen          40.3         18              195            3250 hembra  2007
##  4 Adelia  Torgersen          NA           NA               NA              NA <NA>    2007
##  5 Adelia  Torgersen          36.7         19.3            193            3450 hembra  2007
##  6 Adelia  Torgersen          39.3         20.6            190            3650 macho   2007
##  7 Adelia  Torgersen          38.9         17.8            181            3625 hembra  2007
##  8 Adelia  Torgersen          39.2         19.6            195            4675 macho   2007
##  9 Adelia  Torgersen          34.1         18.1            193            3475 <NA>    2007
## 10 Adelia  Torgersen          42           20.2            190            4250 <NA>    2007
## # … with 334 more rows
```
…
